{
  "status": 3,
  "Intention": "4 cells only",
  "arc": 0,
  "structMode": 0,
  "rarity": 3,
  "levels": [],
  "sprites": [
    {
      "spriteId": "kingsBannerSmall",
      "cx": 21,
      "cy": 12,
      "blendMode": 0,
      "depth": 0,
      "offsetX": 0,
      "offsetY": 0,
      "layerConf": "MainBackWalls"
    },
    {
      "spriteId": "letter",
      "cx": 20.8,
      "cy": 14.6,
      "blendMode": 0,
      "depth": 0,
      "offsetX": 0,
      "offsetY": 0,
      "layerConf": "MainBackWalls"
    },
    {
      "spriteId": "table2",
      "cx": 19.5,
      "cy": 14,
      "blendMode": 0,
      "depth": 0,
      "offsetX": 0,
      "offsetY": 0,
      "layerConf": "MainBackWalls"
    },
    {
      "spriteId": "lanternGlow",
      "cx": 20.65,
      "cy": 12,
      "blendMode": 1,
      "depth": 0,
      "offsetX": 0,
      "offsetY": 0
    },
    {
      "spriteId": "crateWeapon",
      "cx": 23.2,
      "cy": 15,
      "blendMode": 0,
      "depth": 0,
      "offsetX": 0,
      "offsetY": 0,
      "layerConf": "MainBackWalls"
    },
    {
      "spriteId": "crateCandle",
      "cx": 26.5,
      "cy": 15,
      "blendMode": 0,
      "depth": 0,
      "offsetX": 0,
      "offsetY": 0,
      "layerConf": "MainBackWalls"
    },
    {
      "spriteId": "candleLoreA",
      "cx": 25.5,
      "cy": 15,
      "blendMode": 0,
      "depth": 0,
      "offsetX": 1,
      "offsetY": 1,
      "layerConf": "MainAction",
      "light": "LoreCandle"
    }
  ],
  "examinables": [
    {
      "id": "message",
      "events": [
        {
          "lookOpposite": false,
          "isNpcSpeech": false,
          "dropLoot": false,
          "destroyThisLine": false,
          "destroyExaminable": false,
          "text": "DANGER"
        },
        {
          "lookOpposite": false,
          "isNpcSpeech": false,
          "destroyThisLine": false,
          "destroyExaminable": false,
          "text": "For balance reasons, only one difficulty is allowed.",
          "dropLoot": false,
          "color": 10255693
        },
        {
          "lookOpposite": false,
          "isNpcSpeech": false,
          "dropLoot": false,
          "destroyThisLine": false,
          "destroyExaminable": false,
          "text": "Make sure to enable 4 cell mode in the vanilla landing stage.",
          "color": 10255693
        }
      ],
      "label": "Document",
      "autoExamOnce": false,
      "hideToolTip": false
    }
  ],
  "room": "aEMEntrance",
  "onlyUseOnce": false,
  "fxEmitters": [],
  "__separator_group_ID": -1,
  "__separator_group_Name": "",
  "__original_Index": 76
}