{
  "id": "aEMDoor4",
  "active": false,
  "flags": 0,
  "width": 3,
  "height": 8,
  "tileProps": [],
  "layers": [
    {
      "name": "col",
      "data": {
        "file": "editor/cols.png",
        "size": 16,
        "stride": 4,
        "data": "AQABAAEAAQABAAEAAAAAAAAAAAAAAAAAAAAAAAAAAAAAAAAAAAAAAAAAAQABAAEA"
      }
    },
    {
      "name": "lnk",
      "data": {
        "file": "editor/links.png",
        "size": 16,
        "stride": 4,
        "data": "AAAAAAAAAAAAAAAABQAAAAUABQAAAAUABQAAAAUABQAAAAUABQAAAAUAAAAAAAAA"
      }
    }
  ],
  "markers": [
    {
      "x": 0,
      "y": 2,
      "marker": "DisableDecorator",
      "width": 3,
      "height": 5
    }
  ],
  "type": "Corridor",
  "props": {
    "tileSize": 16,
    "layers": [
      {
        "l": "col",
        "p": {
          "alpha": 1
        }
      },
      {
        "l": "lnk",
        "p": {
          "alpha": 0.68
        }
      },
      {
        "l": "markers",
        "p": {
          "alpha": 0.5
        }
      }
    ]
  },
  "group": 53,
  "__separator_group_ID": 53,
  "__separator_group_Name": "alaahEliteMode",
  "__original_Index": 1216
}