{
  "id": "Screamer",
  "score": 2,
  "canBeElite": true,
  "minPfSize": 4,
  "pfCost": 1,
  "maxPerRoom": 1,
  "maxPerPlatform": 1,
  "props": {
    "moveSpeedMul": 2,
    "movePauseMul": 0,
    "near": 15
  },
  "skill": [
    {
      "id": "shove",
      "charge": 0.8,
      "coolDown": 0.8,
      "hitFrame": 3,
      "lockAiAfter": 0,
      "radius": 1.35,
      "breachResistance": 0.8,
      "disableAnnounce": false,
      "manual": false,
      "allowInAir": false,
      "allowSameSkillNearby": false,
      "ignoreGlobalCD": false,
      "props": {
        "bump": 1.5
      },
      "power": [
        10
      ],
      "sfxCharge": "sfx/enm_zmb_cc.wav",
      "sfxRelease": "sfx/enm_zmb_release1.wav"
    },
    {
      "id": "popSword",
      "charge": 0.75,
      "coolDown": 6,
      "hitFrame": 3,
      "lockAiAfter": 0,
      "radius": 5,
      "breachResistance": 0.8,
      "disableAnnounce": false,
      "manual": false,
      "allowInAir": false,
      "allowSameSkillNearby": false,
      "ignoreGlobalCD": false,
      "props": {
        "duration": 0.1,
        "stayDuration": 0.25,
        "height": 1
      },
      "power": [
        12
      ],
      "sfxCharge": "sfx/enm_zmb_cc.wav",
      "sfxRelease": "sfx/enm_zmb_release1.wav"
    },
    {
      "id": "call",
      "charge": 0.5,
      "coolDown": 3,
      "radius": 0,
      "props": {},
      "lockAiAfter": 0,
      "allowSameSkillNearby": false,
      "ignoreGlobalCD": false,
      "breachResistance": 0,
      "allowInAir": false,
      "disableAnnounce": false,
      "hitFrame": 3,
      "manual": true
    },
    {
      "id": "teleport",
      "charge": 0.2,
      "coolDown": 0,
      "hitFrame": 0,
      "lockAiAfter": 0,
      "radius": 8,
      "breachResistance": 0.8,
      "disableAnnounce": true,
      "manual": true,
      "allowInAir": false,
      "allowSameSkillNearby": false,
      "ignoreGlobalCD": true,
      "props": {},
      "sfxCharge": "sfx/enm_tp_charge.wav",
      "sfxRelease": "sfx/enm_tp.wav"
    },
    {
      "id": "scream",
      "charge": 10,
      "coolDown": 5,
      "hitFrame": 3,
      "lockAiAfter": 0,
      "radius": 1.35,
      "breachResistance": 0.5,
      "disableAnnounce": false,
      "manual": true,
      "allowInAir": false,
      "allowSameSkillNearby": false,
      "ignoreGlobalCD": false,
      "props": {}
    }
  ],
  "genTags": 0,
  "blueprints": [],
  "metaItems": [],
  "index": 63,
  "group": 2,
  "icon": {
    "file": "cardIcons.png",
    "size": 24,
    "x": 42,
    "y": 13
  },
  "name": "Criard",
  "glowInnerColor": 11197250,
  "flesh1": 5669211,
  "flesh2": 12303527,
  "life": [
    600
  ],
  "volteDelay": 1,
  "weight": 10,
  "__separator_group_ID": 2,
  "__separator_group_Name": "WIP",
  "__original_Index": 63
}